…
  group_by(city_state) %>%
  summarize(
    unsolved = sum(resolution == "unsolve"),
    n = n()
  ) %>%
  mutate(
    test_results = map2(unsolved, n, prop.test),
    tidy_results = map(test_results, broom::tidy)
  ) %>%
  select(city_state, tidy_results) %>%
  unnest(tidy_results) %>%
  select(city_state, estimate, starts_with("conf"))
```

    ## # A tibble: 50 × 4
    ##    city_state    estimate conf.low conf.high
    ##    <chr>            <dbl>    <dbl>     <dbl>
    ##  1 AlbuquerqueNM        0        0  0.0125  
    ##  2 AtlantaGA            0        0  0.00490 
    ##  3 BaltimoreMD          0        0  0.00169 
    ##  4 Baton RougeLA        0        0  0.0112  
    ##  5 BirminghamAL         0        0  0.00596 
    ##  6 BostonMA             0        0  0.00775 
    ##  7 BuffaloNY            0        0  0.00912 
    ##  8 CharlotteNC          0        0  0.00693 
    ##  9 ChicagoIL            0        0  0.000865
    ## 10 CincinnatiOH         0        0  0.00686 
    ## # … with 40 more rows
…
dataframe_new
```

    ## # A tibble: 160 × 4
    ##    arm     subject_id week  observations
    ##    <chr>   <chr>      <chr>        <dbl>
    ##  1 control 01         1             0.2 
    ##  2 control 01         2            -1.31
    ##  3 control 01         3             0.66
    ##  4 control 01         4             1.96
    ##  5 control 01         5             0.23
    ##  6 control 01         6             1.09
    ##  7 control 01         7             0.05
    ##  8 control 01         8             1.94
    ##  9 control 02         1             1.13
    ## 10 control 02         2            -0.88
    ## # … with 150 more rows
…
#### Step1: The code chunk below loads the iris dataset from the tidyverse package

``` r
set.seed(10)

iris_with_missing = iris %>% 
  map_df(~replace(.x, sample(1:150, 20), NA)) %>%
  mutate(Species = as.character(Species)) %>%
  janitor::clean_names()

iris_with_missing
```

    ## # A tibble: 150 × 5
    ##    sepal_length sepal_width petal_length petal_width species
    ##           <dbl>       <dbl>        <dbl>       <dbl> <chr>  
    ##  1          5.1         3.5          1.4         0.2 setosa 
    ##  2          4.9         3            1.4         0.2 setosa 
    ##  3          4.7         3.2          1.3         0.2 setosa 
    ##  4          4.6         3.1          1.5        NA   setosa 
    ##  5          5           3.6          1.4         0.2 setosa 
    ##  6          5.4         3.9          1.7         0.4 setosa 
    ##  7         NA           3.4          1.4         0.3 setosa 
    ##  8          5           3.4          1.5         0.2 setosa 
    ##  9          4.4         2.9          1.4         0.2 setosa 
    ## 10          4.9         3.1         NA           0.1 setosa 
    ## # … with 140 more rows
…
#### Step3: Applying the function

``` r
iris_with_filled = map(iris_with_missing, filling_table) %>%
  as_tibble()

iris_with_filled
```

    ## # A tibble: 150 × 5
    ##    sepal_length sepal_width petal_length petal_width species
    ##           <dbl>       <dbl>        <dbl>       <dbl> <chr>  
    ##  1         5.1          3.5         1.4         0.2  setosa 
    ##  2         4.9          3           1.4         0.2  setosa 
    ##  3         4.7          3.2         1.3         0.2  setosa 
    ##  4         4.6          3.1         1.5         1.19 setosa 
    ##  5         5            3.6         1.4         0.2  setosa 
    ##  6         5.4          3.9         1.7         0.4  setosa 
    ##  7         5.82         3.4         1.4         0.3  setosa 
    ##  8         5            3.4         1.5         0.2  setosa 
    ##  9         4.4          2.9         1.4         0.2  setosa 
    ## 10         4.9          3.1         3.77        0.1  setosa 
    ## # … with 140 more rows
